PA_Siegismund/axis_reg_tb_wave.vcd
$date
  Sun May 28 19:55:10 2023
$end
$version
  GHDL v0
$end
$timescale
  1 fs
$end
$scope module standard $end
$upscope $end
$scope module textio $end
$upscope $end
$scope module std_logic_1164 $end
$upscope $end
$scope module std_logic_misc $end
$upscope $end
$scope module numeric_std $end
$upscope $end
$scope module types_pkg $end
$upscope $end
$scope module adaptations_pkg $end
$var reg 1 ! global_show_msg_for_uvvm_cmd $end
$upscope $end
$scope module math_real $end
$upscope $end
$scope module string_methods_pkg $end
$upscope $end
$scope module protected_types_pkg $end
$upscope $end
$scope module global_signals_and_shared_variables_pkg $end
$var reg 1 " global_trigger $end
$var reg 1 # global_barrier $end
$upscope $end
$scope module hierarchy_linked_list_pkg $end
$upscope $end
$scope module license_pkg $end
$upscope $end
$scope module env $end
$upscope $end
$scope module alert_hierarchy_pkg $end
$upscope $end
$scope module methods_pkg $end
$upscope $end
$scope module bfm_common_pkg $end
$upscope $end
$scope module rand_pkg $end
$upscope $end
$scope module func_cov_pkg $end
$upscope $end
$scope module axis_pkg $end
$upscope $end
$scope module axis_reg_pkg $end
$upscope $end
$scope module axis_data_gen_pkg $end
$upscope $end
$scope module axis_data_cmp_pkg $end
$upscope $end
$scope module axis_rnd_pkg $end
$upscope $end
$scope module axis_reg_tb_pkg $end
$upscope $end
$scope module integer_fcn_pkg $end
$upscope $end
$scope module tb_utils_2008_pkg $end
$upscope $end
$scope module txt_util $end
$upscope $end
$scope module axis_reg_tb $end
$var reg 1 $ clk_in $end
$var reg 1 % rst_n_in $end
$comment axis_gen_m2s is not handled $end
$comment axis_gen_s2m is not handled $end
$comment axis_cmp_m2s is not handled $end
$comment axis_cmp_s2m is not handled $end
$var reg 1 & axis_cmp_s2m_tready $end
$var reg 1 ' axis_cmp_m2s_tvalid $end
$var reg 1 ( axis_gen_s2m_tready $end
$var reg 1 ) axis_gen_m2s_tvalid $end
$var reg 8 * axis_gen_m2s_tdata[7:0] $end
$var reg 8 + axis_cmp_m2s_tdata[7:0] $end
$var reg 1 , axis_gen_transfer $end
$var reg 1 - axis_cmp_transfer $end
$var reg 1 . finish $end
$var reg 1 / gen_done_out $end
$var reg 1 0 cmp_data_over_out $end
$var reg 1 1 cmp_deviation_out $end
$scope module dut $end
$var reg 1 2 clk_i $end
$var reg 1 3 rst_n_i $end
$comment axis_s_i is not handled $end
$comment axis_s_o is not handled $end
$comment axis_m_i is not handled $end
$comment axis_m_o is not handled $end
$comment rin is not handled $end
$comment r is not handled $end
$upscope $end
$scope module data_gen_i0 $end
$var reg 1 4 clk_i $end
$var reg 1 5 rst_n_i $end
$comment data_i is not handled $end
$comment data_o is not handled $end
$var reg 1 6 done_o $end
$var integer 32 7 test_id_o $end
$comment rin is not handled $end
$comment r is not handled $end
$upscope $end
$scope module data_cmp_i0 $end
$var reg 1 8 clk_i $end
$var reg 1 9 rst_n_i $end
$comment data_i is not handled $end
$comment data_o is not handled $end
$var reg 1 : deviation_o $end
$var reg 1 ; data_over_o $end
$comment rin is not handled $end
$comment r is not handled $end
$upscope $end
$upscope $end
$enddefinitions $end
#0
1!
L"
X#
1$
0%
0&
0'
1(
0)
b00000000 *
b00000000 +
0,
0-
0.
0/
00
01
12
03
14
05
06
b0 7
18
09
0:
0;
#5000000
0$
02
04
08
#10000000
1$
12
14
18
#15000000
0$
02
04
08
#20000000
1$
12
14
18
#25000000
0$
02
04
08
#30000000
1$
12
14
18
#35000000
0$
02
04
08
#40000000
1$
12
14
18
#45000000
0$
02
04
08
#50000000
1$
12
14
18
#55000000
0$
02
04
08
#60000000
1$
12
14
18
#65000000
0$
02
04
08
#70000000
1$
12
14
18
#75000000
0$
02
04
08
#80000000
1$
12
14
18
#85000000
0$
02
04
08
#90000000
1$
12
14
18
#95000000
0$
02
04
08
#100000000
1$
12
14
18
#105000000
0$
02
04
08
#110000000
1$
12
14
18
#115000000
0$
02
04
08
#120000000
1$
12
14
18
#125000000
0$
02
04
08
#130000000
1$
12
14
18
#135000000
0$
02
04
08
#140000000
1$
12
14
18
#145000000
0$
1%
02
13
04
15
08
19
#150000000
1$
12
14
18
#155000000
0$
02
04
08
#160000000
1$
12
14
18
#165000000
0$
02
04
08
#170000000
1$
12
14
18
#175000000
0$
02
04
08
#180000000
1$
12
14
18
#185000000
0$
02
04
08
#190000000
1$
12
14
18
#195000000
0$
02
04
08
#200000000
1$
12
14
18
#205000000
0$
02
04
08
#210000000
1$
12
14
18
#215000000
0$
02
04
08
#220000000
1$
12
14
18
#225000000
0$
02
04
08
#230000000
1$
12
14
18
#235000000
0$
02
04
08
#240000000
1$
1&
1)
b10011111 *
1,
12
14
18
#245000000
0$
02
04
08
#250000000
1$
1'
b00001011 *
b10011111 +
1-
12
14
b1 7
18
#255000000
0$
02
04
08
#260000000
1$
0&
0(
b01100100 *
b00001011 +
0,
0-
12
14
18
#265000000
0$
02
04
08
#270000000
1$
12
14
18
#275000000
0$
02
04
08
#280000000
1$
12
14
18
#285000000
0$
02
04
08
#290000000
1$
12
14
18
#295000000
0$
02
04
08
#300000000
1$
12
14
18
#305000000
0$
02
04
08
#310000000
1$
12
14
18
#315000000
0$
02
04
08
#320000000
1$
12
14
18
#325000000
0$
02
04
08
#330000000
1$
12
14
18
#335000000
0$
02
04
08
#340000000
1$
12
14
18
#345000000
0$
02
04
08
#350000000
1$
12
14
18
#355000000
0$
02
04
08
#360000000
1$
1&
1(
1,
1-
12
14
18
#365000000
0$
02
04
08
#370000000
1$
b11100100 *
b01100100 +
12
14
b10 7
18
#375000000
0$
02
04
08
#380000000
1$
0&
0(
b11101111 *
b11100100 +
0,
0-
12
14
18
#385000000
0$
02
04
08
#390000000
1$
12
14
18
#395000000
0$
02
04
08
#400000000
1$
12
14
18
#405000000
0$
02
04
08
#410000000
1$
12
14
18
#415000000
0$
02
04
08
#420000000
1$
12
14
18
#425000000
0$
02
04
08
#430000000
1$
12
14
18
#435000000
0$
02
04
08
#440000000
1$
12
14
18
#445000000
0$
02
04
08
#450000000
1$
12
14
18
#455000000
0$
02
04
08
#460000000
1$
12
14
18
#465000000
0$
02
04
08
#470000000
1$
12
14
18
#475000000
0$
02
04
08
#480000000
1$
1&
1(
1,
1-
12
14
18
#485000000
0$
02
04
08
#490000000
1$
0&
0(
b00100110 *
b11101111 +
0,
0-
12
14
18
#495000000
0$
02
04
08
#500000000
1$
1&
1(
1,
1-
12
14
18
#505000000
0$
02
04
08
#510000000
1$
0&
0(
b01111000 *
b00100110 +
0,
0-
12
14
18
#515000000
0$
02
04
08
#520000000
1$
1&
1(
1,
1-
12
14
18
#525000000
0$
02
04
08
#530000000
1$
0&
0(
b11001000 *
b01111000 +
0,
0-
12
14
b11 7
18
#535000000
0$
02
04
08
#540000000
1$
1&
1(
1,
1-
12
14
18
#545000000
0$
02
04
08
#550000000
1$
b00101101 *
b11001000 +
12
14
18
#555000000
0$
02
04
08
#560000000
1$
0&
0(
b01010010 *
b00101101 +
0,
0-
12
14
18
#565000000
0$
02
04
08
#570000000
1$
12
14
18
#575000000
0$
02
04
08
#580000000
1$
1&
1(
1,
1-
12
14
18
#585000000
0$
02
04
08
#590000000
1$
0&
0(
b01111000 *
b01010010 +
0,
0-
12
14
b100 7
18
#595000000
0$
02
04
08
#600000000
1$
12
14
18
#605000000
0$
02
04
08
#610000000
1$
1&
1(
1,
1-
12
14
18
#615000000
0$
02
04
08
#620000000
1$
0&
0(
b10110100 *
b01111000 +
0,
0-
12
14
18
#625000000
0$
02
04
08
#630000000
1$
12
14
18
#635000000
0$
02
04
08
#640000000
1$
12
14
18
#645000000
0$
02
04
08
#650000000
1$
12
14
18
#655000000
0$
02
04
08
#660000000
1$
12
14
18
#665000000
0$
02
04
08
#670000000
1$
12
14
18
#675000000
0$
02
04
08
#680000000
1$
12
14
18
#685000000
0$
02
04
08
#690000000
1$
12
14
18
#695000000
0$
02
04
08
#700000000
1$
12
14
18
#705000000
0$
02
04
08
#710000000
1$
12
14
18
#715000000
0$
02
04
08
#720000000
1$
12
14
18
#725000000
0$
02
04
08
#730000000
1$
12
14
18
#735000000
0$
02
04
08
#740000000
1$
12
14
18
#745000000
0$
02
04
08
#750000000
1$
12
14
18
#755000000
0$
02
04
08
#760000000
1$
12
14
18
#765000000
0$
02
04
08
#770000000
1$
12
14
18
#775000000
0$
02
04
08
#780000000
1$
12
14
18
#785000000
0$
02
04
08
#790000000
1$
12
14
18
#795000000
0$
02
04
08
#800000000
1$
12
14
18
#805000000
0$
02
04
08
#810000000
1$
12
14
18
#815000000
0$
02
04
08
#820000000
1$
1&
1(
1,
1-
12
14
18
#825000000
0$
02
04
08
#830000000
1$
0&
0(
b01010111 *
b10110100 +
0,
0-
12
14
18
#835000000
0$
02
04
08
#840000000
1$
12
14
18
#845000000
0$
02
04
08
#850000000
1$
12
14
18
#855000000
0$
02
04
08
#860000000
1$
1&
1(
1,
1-
12
14
18
#865000000
0$
02
04
08
#870000000
1$
0&
0(
b00001011 *
b01010111 +
0,
0-
12
14
18
#875000000
0$
02
04
08
#880000000
1$
12
14
18
#885000000
0$
02
04
08
#890000000
1$
12
14
18
#895000000
0$
02
04
08
#900000000
1$
1&
1(
1,
1-
12
14
18
